^C:\USERS\1014308\DESKTOP\LAB1\MP2-LAB1-SET\SLN\VC10\DEBUG\BITFIELD.LIB|C:\USERS\1014308\DESKTOP\LAB1\MP2-LAB1-SET\SLN\VC10\DEBUG\GTEST.LIB|C:\USERS\1014308\DESKTOP\LAB1\MP2-LAB1-SET\SLN\VC10\TEST_BITFIELD\DEBUG\TEST_BITFIELD.EXE.EMBED.MANIFEST.RES|C:\USERS\1014308\DESKTOP\LAB1\MP2-LAB1-SET\SLN\VC10\TEST_BITFIELD\DEBUG\TEST_MAIN.OBJ|C:\USERS\1014308\DESKTOP\LAB1\MP2-LAB1-SET\SLN\VC10\TEST_BITFIELD\DEBUG\TEST_TBITFIELD.OBJ|C:\USERS\1014308\DESKTOP\LAB1\MP2-LAB1-SET\SLN\VC10\TEST_BITFIELD\DEBUG\TEST_TSET.OBJ
/ERRORREPORT:PROMPT /OUT:"C:\Users\1014308\Desktop\Lab1\mp2-lab1-set\sln\vc10\Debug\test_bitfield.exe" /INCREMENTAL /NOLOGO /LIBPATH:../Debug gtest.lib bitfield.lib kernel32.lib user32.lib gdi32.lib winspool.lib comdlg32.lib advapi32.lib shell32.lib ole32.lib oleaut32.lib uuid.lib odbc32.lib odbccp32.lib /MANIFEST /ManifestFile:"Debug\test_bitfield.exe.intermediate.manifest" /MANIFESTUAC:"level='asInvoker' uiAccess='false'" /DEBUG /PDB:"C:\Users\1014308\Desktop\Lab1\mp2-lab1-set\sln\vc10\Debug\test_bitfield.pdb" /SUBSYSTEM:CONSOLE /TLBID:1 /DYNAMICBASE /NXCOMPAT /IMPLIB:"C:\Users\1014308\Desktop\Lab1\mp2-lab1-set\sln\vc10\Debug\test_bitfield.lib" /MACHINE:X86 Debug\test_bitfield.exe.embed.manifest.res
Debug\test_main.obj
Debug\test_tbitfield.obj
Debug\test_tset.obj
"C:\Users\1014308\Desktop\Lab1\mp2-lab1-set\sln\vc10\Debug\gtest.lib"
"C:\Users\1014308\Desktop\Lab1\mp2-lab1-set\sln\vc10\Debug\bitfield.lib"
