^C:\USERS\1014308\DESKTOP\LAB1\MP2-LAB1-SET\SLN\VC10\DEBUG\BITFIELD.LIB|C:\USERS\1014308\DESKTOP\LAB1\MP2-LAB1-SET\SLN\VC10\DEBUG\GTEST.LIB|C:\USERS\1014308\DESKTOP\LAB1\MP2-LAB1-SET\SLN\VC10\TEST_BITFIELD\DEBUG\TEST_BITFIELD.EXE.EMBED.MANIFEST.RES|C:\USERS\1014308\DESKTOP\LAB1\MP2-LAB1-SET\SLN\VC10\TEST_BITFIELD\DEBUG\TEST_MAIN.OBJ|C:\USERS\1014308\DESKTOP\LAB1\MP2-LAB1-SET\SLN\VC10\TEST_BITFIELD\DEBUG\TEST_TBITFIELD.OBJ|C:\USERS\1014308\DESKTOP\LAB1\MP2-LAB1-SET\SLN\VC10\TEST_BITFIELD\DEBUG\TEST_TSET.OBJ
C:\USERS\1014308\DESKTOP\LAB1\MP2-LAB1-SET\SLN\VC10\DEBUG\TEST_BITFIELD.ILK
C:\USERS\1014308\DESKTOP\LAB1\MP2-LAB1-SET\SLN\VC10\DEBUG\TEST_BITFIELD.EXE
C:\USERS\1014308\DESKTOP\LAB1\MP2-LAB1-SET\SLN\VC10\TEST_BITFIELD\DEBUG\TEST_BITFIELD.EXE.INTERMEDIATE.MANIFEST
C:\USERS\1014308\DESKTOP\LAB1\MP2-LAB1-SET\SLN\VC10\DEBUG\TEST_BITFIELD.PDB
