^C:\USERS\1014308\DESKTOP\LAB1\MP2-LAB1-SET\SLN\VC10\DEBUG\BITFIELD.LIB|C:\USERS\1014308\DESKTOP\LAB1\MP2-LAB1-SET\SLN\VC10\SAMPLE_PRIME_NUMBERS\DEBUG\SAMPLE_PRIME_NUMBERS.EXE.EMBED.MANIFEST.RES|C:\USERS\1014308\DESKTOP\LAB1\MP2-LAB1-SET\SLN\VC10\SAMPLE_PRIME_NUMBERS\DEBUG\SAMPLE_PRIME_NUMBERS.OBJ
/ERRORREPORT:PROMPT /OUT:"C:\Users\1014308\Desktop\Lab1\mp2-lab1-set\sln\vc10\Debug\sample_prime_numbers.exe" /INCREMENTAL /NOLOGO /LIBPATH:../Debug bitfield.lib kernel32.lib user32.lib gdi32.lib winspool.lib comdlg32.lib advapi32.lib shell32.lib ole32.lib oleaut32.lib uuid.lib odbc32.lib odbccp32.lib /MANIFEST /ManifestFile:"Debug\sample_prime_numbers.exe.intermediate.manifest" /MANIFESTUAC:"level='asInvoker' uiAccess='false'" /DEBUG /PDB:"C:\Users\1014308\Desktop\Lab1\mp2-lab1-set\sln\vc10\Debug\sample_prime_numbers.pdb" /SUBSYSTEM:CONSOLE /TLBID:1 /DYNAMICBASE /NXCOMPAT /IMPLIB:"C:\Users\1014308\Desktop\Lab1\mp2-lab1-set\sln\vc10\Debug\sample_prime_numbers.lib" /MACHINE:X86 Debug\sample_prime_numbers.exe.embed.manifest.res
Debug\sample_prime_numbers.obj
"C:\Users\1014308\Desktop\Lab1\mp2-lab1-set\sln\vc10\Debug\bitfield.lib"
