^C:\USERS\1014308\DESKTOP\LAB1\MP2-LAB1-SET\GTEST\GTEST-ALL.CC
C:\USERS\1014308\DESKTOP\LAB1\MP2-LAB1-SET\SLN\VC10\GTEST\DEBUG\GTEST-ALL.OBJ
C:\USERS\1014308\DESKTOP\LAB1\MP2-LAB1-SET\SLN\VC10\GTEST\DEBUG\VC100.PDB
